{
    "name": "my-app",
    "version": "0.0.0",
    "license": "MIT",
    "scripts": {
  /*    
      "ng": "ng",
      "start": "ng serve",
      "build": "ng build",
      "test": "ng test",
      "lint": "ng lint",
      "e2e": "ng e2e"
  */    
      "ng": "ng",
      "start": "ng serve",
      "start:hmr": "ng serve --hmr",
      "start:aot": "ng serve --aot",
      "build": "rimraf dist && ng build",
      "build:prod": "npm run build -- --prod",
      "build:prod:aot": "npm run build:prod -- --aot",
      "build:ci": "npm-run-all -p -r build:prod build:prod:aot",
      "test": "ng test -sr",
      "test:coverage": "rimraf coverage && npm run test -- -cc",
      "lint": "ng lint --type-check",
      "lint:fix": "ng lint --fix",
      "lint:styles": "stylelint ./src/**/*.scss",
      "lint:ci": "npm run lint && npm run lint:styles",
      "pree2e": "webdriver-manager update --standalone false --gecko false",
      "e2e": "ng e2e",
      "prepush": "npm run lint:ci"
    },
    "private": true,
    "dependencies": {
  /*    
      "@angular/animations": "^4.2.4",
      "@angular/common": "^4.2.4",
      "@angular/compiler": "^4.2.4",
      "@angular/core": "^4.2.4",
      "@angular/forms": "^4.2.4",
      "@angular/http": "^4.2.4",
      "@angular/platform-browser": "^4.2.4",
      "@angular/platform-browser-dynamic": "^4.2.4",
      "@angular/router": "^4.2.4",
      "core-js": "^2.4.1",
      "rxjs": "^5.4.2",
      "zone.js": "^0.8.14"
  */
      "@angular/animations": "4.3.2",
      "@angular/common": "4.3.2",
      "@angular/compiler": "4.3.2",
      "@angular/core": "4.3.2",
      "@angular/forms": "4.3.2",
      "@angular/http": "4.3.2",
      "@angular/platform-browser": "4.3.2",
      "@angular/platform-browser-dynamic": "4.3.2",
      "@angular/router": "4.3.2",
      "core-js": "2.4.1",
      "rxjs": "5.4.2",
      "zone.js": "0.8.16"
    },
    "devDependencies": {
  /*    
      "@angular/cli": "1.4.8",
      "@angular/compiler-cli": "^4.2.4",
      "@angular/language-service": "^4.2.4",
      "@types/jasmine": "~2.5.53",
      "@types/jasminewd2": "~2.0.2",
      "@types/node": "~6.0.60",
      "codelyzer": "~3.2.0",
      "jasmine-core": "~2.6.2",
      "jasmine-spec-reporter": "~4.1.0",
      "karma": "~1.7.0",
      "karma-chrome-launcher": "~2.1.1",
      "karma-cli": "~1.0.1",
      "karma-coverage-istanbul-reporter": "^1.2.1",
      "karma-jasmine": "~1.1.0",
      "karma-jasmine-html-reporter": "^0.2.2",
      "protractor": "~5.1.2",
      "ts-node": "~3.2.0",
      "tslint": "~5.7.0",
      "typescript": "~2.3.3"
  */
      "@angular/cli": "1.2.6",
      "@angular/compiler-cli": "4.3.2",
      "@angular/language-service": "4.3.2",
      "@types/jasmine": "2.5.38",
      "@types/jasminewd2": "2.0.2",
      "@types/node": "6.0.74",
      "codelyzer": "3.0.1",
      "jasmine-core": "2.6.2",
      "jasmine-spec-reporter": "4.1.0",
      "karma": "1.7.0",
      "karma-chrome-launcher": "2.1.1",
      "karma-cli": "1.0.1",
      "karma-coverage-istanbul-reporter": "1.3.0",
      "karma-jasmine": "1.1.0",
      "karma-jasmine-html-reporter": "0.2.2",
      "protractor": "5.1.2",
      "ts-node": "3.0.4",
      "tslint": "5.4.2",
      "typescript": "2.3.4"
    }
  }
  